{
  "npmScope": "angular6_workspace_starter",
  "projects": {
    "web": {
      "tags": []
    },
    "web-e2e": {
      "tags": []
    },
    "core": {
      "tags": []
    },
    "state": {
      "tags": []
    },
    "shared": {
      "tags": []
    }
  }
}
